\relax 
\babel@aux{english}{}
\@writefile{toc}{\contentsline {section}{\numberline {1}About}{3}\protected@file@percent }
\@writefile{toc}{\contentsline {subsection}{\numberline {1.1}Introduction}{3}\protected@file@percent }
\@writefile{toc}{\contentsline {subsection}{\numberline {1.2}Goal}{3}\protected@file@percent }
\@writefile{toc}{\contentsline {subsection}{\numberline {1.3}Result}{3}\protected@file@percent }
\@writefile{toc}{\contentsline {section}{\numberline {2}Solution}{4}\protected@file@percent }
\@writefile{toc}{\contentsline {subsection}{\numberline {2.1}Feature extraction}{4}\protected@file@percent }
\@writefile{toc}{\contentsline {subsubsection}{\numberline {2.1.1}Colour Histograms}{4}\protected@file@percent }
\@writefile{toc}{\contentsline {subsubsection}{\numberline {2.1.2}Scale Invariant Feature Transformation and Bag-of-words model}{4}\protected@file@percent }
\@writefile{toc}{\contentsline {subsection}{\numberline {2.2}Searching the dataset}{5}\protected@file@percent }
\@writefile{toc}{\contentsline {subsubsection}{\numberline {2.2.1}K-Nearest Neighbours}{5}\protected@file@percent }
\@writefile{toc}{\contentsline {subsubsection}{\numberline {2.2.2}Range Query}{5}\protected@file@percent }
\@writefile{toc}{\contentsline {section}{\numberline {3}Implementation}{6}\protected@file@percent }
\@writefile{toc}{\contentsline {subsection}{\numberline {3.1}Language and Frameworks}{6}\protected@file@percent }
\@writefile{toc}{\contentsline {subsection}{\numberline {3.2}Dataset}{6}\protected@file@percent }
\@writefile{toc}{\contentsline {subsection}{\numberline {3.3}Libraries}{6}\protected@file@percent }
\@writefile{toc}{\contentsline {subsection}{\numberline {3.4}Web Application}{7}\protected@file@percent }
\@writefile{toc}{\contentsline {subsection}{\numberline {3.5}Algorithm implementation}{7}\protected@file@percent }
\@writefile{toc}{\contentsline {subsubsection}{\numberline {3.5.1}KNN}{7}\protected@file@percent }
\@writefile{lof}{\contentsline {figure}{\numberline {1}{\ignorespaces Web application upload}}{8}\protected@file@percent }
\@writefile{lof}{\contentsline {figure}{\numberline {2}{\ignorespaces Web application result}}{8}\protected@file@percent }
\@writefile{toc}{\contentsline {subsubsection}{\numberline {3.5.2}Range Query}{11}\protected@file@percent }
\@writefile{toc}{\contentsline {subsection}{\numberline {3.6}Colour Histograms}{14}\protected@file@percent }
\@writefile{toc}{\contentsline {subsection}{\numberline {3.7}SIFT}{16}\protected@file@percent }
\@writefile{toc}{\contentsline {section}{\numberline {4}Examples}{18}\protected@file@percent }
\@writefile{toc}{\contentsline {subsection}{\numberline {4.1}SIFT Example}{18}\protected@file@percent }
\@writefile{lof}{\contentsline {figure}{\numberline {3}{\ignorespaces SIFT input, 1000 descriptors, 100 code words}}{18}\protected@file@percent }
\@writefile{lof}{\contentsline {figure}{\numberline {4}{\ignorespaces SIFT KNN output}}{18}\protected@file@percent }
\@writefile{toc}{\contentsline {subsection}{\numberline {4.2}Histogram Examples}{18}\protected@file@percent }
\@writefile{lof}{\contentsline {figure}{\numberline {5}{\ignorespaces Histogram input, 3 channels, HSV, (8, 12, 12) bins}}{18}\protected@file@percent }
\@writefile{lof}{\contentsline {figure}{\numberline {6}{\ignorespaces Histogram KNN output}}{19}\protected@file@percent }
\@writefile{lof}{\contentsline {figure}{\numberline {7}{\ignorespaces Histogram input, 3 channels, HSV, (8, 12, 12) bins}}{19}\protected@file@percent }
\@writefile{toc}{\contentsline {section}{\numberline {5}Experiments}{19}\protected@file@percent }
\@writefile{toc}{\contentsline {subsection}{\numberline {5.1}SIFT - 1000 descriptors, original size}{19}\protected@file@percent }
\@writefile{toc}{\contentsline {subsection}{\numberline {5.2}SIFT - 500 descriptors, original size}{19}\protected@file@percent }
\@writefile{toc}{\contentsline {subsection}{\numberline {5.3}SIFT - 1000 descriptors, resized}{19}\protected@file@percent }
\@writefile{toc}{\contentsline {subsection}{\numberline {5.4}Colour Histogram, original size}{19}\protected@file@percent }
\@writefile{lof}{\contentsline {figure}{\numberline {8}{\ignorespaces Histogram KNN output}}{20}\protected@file@percent }
\@writefile{lof}{\contentsline {figure}{\numberline {9}{\ignorespaces Histogram input, 3 channels, HSV, (8, 12, 12) bins}}{20}\protected@file@percent }
\@writefile{toc}{\contentsline {subsection}{\numberline {5.5}Colour Histogram, resized}{20}\protected@file@percent }
\@writefile{toc}{\contentsline {section}{\numberline {6}Discussion}{20}\protected@file@percent }
\@writefile{lof}{\contentsline {figure}{\numberline {10}{\ignorespaces Histogram KNN output}}{21}\protected@file@percent }
\@writefile{lof}{\contentsline {figure}{\numberline {11}{\ignorespaces SIFT feature extraction time per image in dataset}}{21}\protected@file@percent }
\@writefile{toc}{\contentsline {section}{\numberline {7}Conclusion}{21}\protected@file@percent }
\@writefile{lof}{\contentsline {figure}{\numberline {12}{\ignorespaces SIFT feature extraction time per image in dataset}}{21}\protected@file@percent }
\@writefile{lof}{\contentsline {figure}{\numberline {13}{\ignorespaces SIFT feature extraction time per image in dataset}}{22}\protected@file@percent }
\@writefile{lof}{\contentsline {figure}{\numberline {14}{\ignorespaces Colour Histogram feature extraction time per image in dataset}}{22}\protected@file@percent }
\@writefile{lof}{\contentsline {figure}{\numberline {15}{\ignorespaces Histogram image input}}{22}\protected@file@percent }
\@writefile{lof}{\contentsline {figure}{\numberline {16}{\ignorespaces Histogram output - similiar colours but vastly different from input}}{22}\protected@file@percent }
